k_bulwar = {
	1006.6.21 = { 
		holder = sun_elvish0001	# Jaher 
	}
}

d_bulwar = {
	1006.6.21 = { 
		holder = sun_elvish0001	# Jaher 
	}
}

d_kalib = {
	1006.6.21 = { 
		holder = sun_elvish0001	# Jaher 
	}
}

c_bulwar = {
	1000.1.1 = { change_development_level = 23 }
	1006.6.21 = { 
		holder = sun_elvish0001	# Jaher 
	}
}

c_kalib = {
	1000.1.1 = { change_development_level = 20 }
}

c_azanerdu = {
	1000.1.1 = { change_development_level = 19 }
}

c_eduz_baranun = {
	1000.1.1 = { change_development_level = 19 }
}