﻿# Anbennar: commenting vanilla stuff (hopefully doesn't cause problems to those without dlc)

###FP3 Music

###### CUE Tracks

strugglestart_cue = {
    music = "event:/DLC/FP3/MX/Cuetracks/mx_cuetracks_01_struggle_starts"
    group = group_fp3_cuetrack
}


struggleend_cue = {
    music = "event:/DLC/FP3/MX/Cuetracks/mx_cuetracks_02_struggle_ends"
    group = group_fp3_cuetrack
}

strugglewar_cue = {
    music = "event:/DLC/FP3/MX/Cuetracks/mx_cuetracks_03_war_during_struggle"
    group = group_fp3_cuetrack
}

##### MOOD TRACKS

mfp3_mood_01 = {
    music = "event:/DLC/FP3/MX/Moodtracks/mx_mfp3_mood_01"
    group = group_fp3_moodtrack

    is_valid = {
		# OR = {
			# culture = {
				# has_cultural_pillar = heritage_iranian
			# }
			# culture = {
				# any_parent_culture_or_above = { has_cultural_pillar = heritage_iranian }
			# }
			# religion = religion:islam_religion
			# religion = religion:zoroastrianism_religion
		# }
		# Anbennar
		always = no # idk
	}
}

mfp3_mood_02 = {
    music = "event:/DLC/FP3/MX/Moodtracks/mx_mfp3_mood_02"
    group = group_fp3_moodtrack

    is_valid = {
		# OR = {
			# culture = {
				# has_cultural_pillar = heritage_iranian
			# }
			# culture = {
				# any_parent_culture_or_above = { has_cultural_pillar = heritage_iranian }
			# }
			# religion = religion:islam_religion
			# religion = religion:zoroastrianism_religion
		# }
		# Anbennar
		always = no # idk
	}
}

mfp3_mood_03 = {
    music = "event:/DLC/FP3/MX/Moodtracks/mx_mfp3_mood_03"
    group = group_fp3_moodtrack

    is_valid = {
		# OR = {
			# culture = {
				# has_cultural_pillar = heritage_iranian
			# }
			# culture = {
				# any_parent_culture_or_above = { has_cultural_pillar = heritage_iranian }
			# }
			# religion = religion:islam_religion
			# religion = religion:zoroastrianism_religion
		# }
		# Anbennar
		always = no # idk
	}
}

mfp3_mood_04 = {
    music = "event:/DLC/FP3/MX/Moodtracks/mx_mfp3_mood_04"
    group = group_fp3_moodtrack

    is_valid = { # Exclusively Persian
		# OR = {
			# culture = {
				# has_cultural_pillar = heritage_iranian
			# }
			# culture = {
				# any_parent_culture_or_above = { has_cultural_pillar = heritage_iranian }
			# }
			# AND = {
				# exists = capital_province
				# capital_province = { geographical_region = world_persian_empire }
			# }
		# }
		# Anbennar
		always = no # idk
	}
}

mfp3_mood_05 = {
    music = "event:/DLC/FP3/MX/Moodtracks/mx_mfp3_mood_05"
    group = group_fp3_moodtrack

    is_valid = {
		# OR = {
			# culture = {
				# has_cultural_pillar = heritage_iranian
			# }
			# culture = {
				# any_parent_culture_or_above = { has_cultural_pillar = heritage_iranian }
			# }
			# religion = religion:islam_religion
			# religion = religion:zoroastrianism_religion
		# }
		# Anbennar
		always = no # idk
	}
}

######### GROUPS

group_fp3_cuetrack = {
    pause_factor = 30
}

group_fp3_moodtrack = {
    pause_factor = 15
 	subsequent_playback_chance = { 0.65 0.35 0.1 }
 	mood = yes
	can_be_interrupted = yes
 	trigger_prio_override = yes

	is_valid = { has_fp3_dlc_trigger = yes }
}
