#k_verkal_gulan
##d_verkal_gulan
###c_verkal_gulan
2914 = {

    # Misc
    culture = gold_dwarvish
    religion = ancestor_worship
	holding = castle_holding

    # History
}
6775 = {

    # Misc
    culture = gold_dwarvish
    religion = ancestor_worship
	holding = castle_holding

    # History
}
6776 = {

    # Misc
    culture = gold_dwarvish
    religion = ancestor_worship
	holding = city_holding

    # History
}
6777 = {

    # Misc
    culture = gold_dwarvish
    religion = ancestor_worship
	holding = none

    # History
}
6778 = {

    # Misc
    culture = gold_dwarvish
    religion = ancestor_worship
	holding = none

    # History
}
##d_heros_vale
###c_heros_vale
2915 = {

    # Misc
    culture = gold_dwarvish
    religion = ancestor_worship
	holding = castle_holding

    # History
}
6770 = {

    # Misc
    culture = gold_dwarvish
    religion = ancestor_worship
	holding = city_holding

    # History
}
##d_gulanrod
###c_dwarovrod37
3027 = {

    # Misc
    culture = gold_dwarvish
    religion = ancestor_worship
	holding = castle_holding

    # History
}
###c_dwarovrod35
3025 = {

    # Misc
    culture = gold_dwarvish
    religion = ancestor_worship
	holding = castle_holding

    # History
}
###c_dwarovrod36
3026 = {

    # Misc
    culture = gold_dwarvish
    religion = ancestor_worship
	holding = castle_holding

    # History
}
###c_dwarovrod38
4231 = {

    # Misc
    culture = gold_dwarvish
    religion = ancestor_worship
	holding = castle_holding

    # History
}